/* XPM */
static char * p008_xpm[] = {
"38 38 80 1",
" 	c None",
".	c #3F3F3F",
"+	c #FFFFFF",
"@	c #2B2B2B",
"#	c #3A3A3A",
"$	c #3C3C3C",
"%	c #383838",
"&	c #313131",
"*	c #2D2D2D",
"=	c #242424",
"-	c #2A2A2A",
";	c #292929",
">	c #303030",
",	c #343434",
"'	c #202020",
")	c #1C1C1C",
"!	c #1D1D1D",
"~	c #1F1F1F",
"{	c #232323",
"]	c #2E2E2E",
"^	c #323232",
"/	c #262626",
"(	c #272727",
"_	c #181818",
":	c #161616",
"<	c #191919",
"[	c #020202",
"}	c #212121",
"|	c #131313",
"1	c #151515",
"2	c #121212",
"3	c #3B3B3B",
"4	c #101010",
"5	c #0E0E0E",
"6	c #0B0B0B",
"7	c #1A1A1A",
"8	c #0F0F0F",
"9	c #0C0C0C",
"0	c #090909",
"a	c #080808",
"b	c #000000",
"c	c #050505",
"d	c #040404",
"e	c #484848",
"f	c #070707",
"g	c #010101",
"h	c #373737",
"i	c #FEFEFE",
"j	c #FBFBFB",
"k	c #FAFAFA",
"l	c #F8F8F8",
"m	c #F6F6F6",
"n	c #F0F0F0",
"o	c #F1F1F1",
"p	c #E5E5E5",
"q	c #FDFDFD",
"r	c #F4F4F4",
"s	c #EFEFEF",
"t	c #D9D9D9",
"u	c #F7F7F7",
"v	c #EDEDED",
"w	c #CFCFCF",
"x	c #F3F3F3",
"y	c #EAEAEA",
"z	c #E9E9E9",
"A	c #E7E7E7",
"B	c #E6E6E6",
"C	c #DCDCDC",
"D	c #CECECE",
"E	c #E3E3E3",
"F	c #ECECEC",
"G	c #E0E0E0",
"H	c #DEDEDE",
"I	c #E2E2E2",
"J	c #D8D8D8",
"K	c #D2D2D2",
"L	c #D4D4D4",
"M	c #C8C8C8",
"N	c #BEBEBE",
"O	c #BDBDBD",
"               ..++++@#               ",
"            .$%&*++++=-;;>            ",
"          .#,&*@-++++')!~{;]          ",
"        .#^]@;/(/++++_:_<)~!)[        ",
"       $^*-;/={}}++++||1::122:[       ",
"      3&-((={}'~!++++422|25654:[      ",
"     3&-;/}''~!)7++++8488966654:[     ",
"    3&-;='!!!)77<++++8850aa066588b    ",
"   3&-;='!!!7<<__++++960aaaa0660cde   ",
"   ,-(='!!)<_:__:++++6affaaaaaf[b[b   ",
"  #]({'!!)<_:::11++++affffaaacggbbge  ",
"  ,-/}!))<_:::1||++++ccfffffcgbbbb[b  ",
" h]({'!)<_:::1|22++++cccfffd[gbbbbbbb ",
" ,@/}!)<::::1|224++++cccccdgbbbbbbbbb ",
" &/}~!7_:::1|2244++++ccccd[gbbbbbbbbb ",
"h*/}~)<_11||22448++++ccddgbbbbbbbbbbbb",
"^(/')7_:11|224488++++dcdggbbbbbbbbbbbb",
"++++++++++++++++++++++++++ijkklllmnnop",
"+++++++++++++++++++++++++iqjkkklmoorst",
"++++++++++++++++++++ijjjjklluuurnvnspw",
"++++++++++++++++iiiqurrrxoossvvyzABpCD",
":||50affddgbbbbbbjjlxbbbbbbbbbbbbbbbbb",
"'<50aaffdgbbbbbbbjjlxbbbbbbbbbbbbbbbbb",
" :860afdgbbbbbbbbkjlxbbbbbbbbbbbbbbbb ",
" 2560acgbbbbbbbbbkkuobbbbbbbbbbbbbbbb ",
" _490f[bbbbbbbbbbklmnbbbbbbbbbbbbbbbb ",
"  25agbbbbbbbbbbbluxsbbbbbbbbbbbbbbb  ",
"  :6[bbbbbbbbbbbbrrxvbbbbbbbbbbbbbbb  ",
"   cbbbbbbbbbbbbbxxoybbbbbbbbbbbbbb   ",
"   'bbbbbbbbbbbbbxxnybbbbbbbbbbbbbb   ",
"    'bbbbbbbbbbbboonybbbbbbbbbbbbb    ",
"     'bbbbbbbbbbbnnsAbbbbbbbbbbbb     ",
"      'bbbbbbbbbbsvzEbbbbbbbbbbb      ",
"       9bbbbbbbbbFApGbbbbbbbbbb       ",
"        bfbbbbbbbpAAGbbbbbbbbb        ",
"          bgbbbbbEABHbbbbbbb          ",
"            bbbbbEIJKbbbbb            ",
"               bbLMNObb               "};
